jhon.gonzal.98 === 1024594341E // parece que es de gmail ****

jngonzalez0@misena.edu.co === 98120207580 **

98120207580 === 1024594341E //Sofia Plus **

cnovoapinilla@gmail.com === americavsbarsa // gmail

santiago_vp_25@hotmail.com === bigotesmuerte // gmail o hotmail 

forero.nelson === 1000212921nelsonforero // yahoo

3008586659 === 3008586659NelsonDavid // facebook

ccchavarro18@misena.edu.
CristianChavarro === yolo990510 // gitlab **

aclondono87@misena.edu.co === soloverdolagas //gmail ** 

andrescamilolondonomora === solo verdolagas //gmail **

crispini2001@hotmail.com === 06012001 // facebook

Elmock === 1002866372 // gitlab **

andrescamilolodonomora@gmail.com === soloverdolagas // gitlab **

crisgalindo22@gmail.com === 990922097634 /o/ 99092209764 // gitlab **

elmock0001@gmail.com === alejandro2000 /gmail  **

agutierrez2736@misena.edu.co === 1002866372 // gmail **